

**********************************
***********Your Reciept***********

Sauvignon Blanc 75cl...........499
Cabernet Sauvinon 75cl.........299
1.75l Coca-Cola................200
1.75l Diet Coke................200
1.75l Diet Coke................200
1.75l Diet Coke................200
Smoked Bacon 6 pack............400
Unsmoked Bacon 6 pack..........400
Chicken Breasts 400g...........450
Lean Beef Mince 300g...........500
Pork Chops 750g................350
Times Newspaper................120
Evian Mineral Water 500ml......100
Times Newspaper................120
Evian Mineral Water 500ml......100
Evian Mineral Water 500ml......100
Lynx Africa....................319
Lynx Africa....................319
Lynx Africa....................319
Dove deodorant.................219
Dove deodorant.................219
Dove deodorant.................219

Sub Total:     5852

*********Offers applied**********
Half Price on Wine  -398
Buy One Get One Free on Coca-Cola  -400
Three meats for £10  -350
Free Water when you but The Times  -200
Buy Two Get Third Free on Deodorants  -538

You have saved:     1886

Grand Total:        3966
*********************************

